{
  "project_info": {
    "project_number": "337848936688",
    "firebase_url": "https://gateguard-8147c.firebaseio.com",
    "project_id": "gateguard-8147c",
    "storage_bucket": "gateguard-8147c.appspot.com"
  },
  "client": [
    {
      "client_info": {
        "mobilesdk_app_id": "1:337848936688:android:775fd301f5030bff",
        "android_client_info": {
          "package_name": "xyz.gateguard.tablettenant"
        }
      },
      "oauth_client": [
        {
          "client_id": "337848936688-nmhq4re1hdc22tggmbqu5062vrp25ain.apps.googleusercontent.com",
          "client_type": 3
        }
      ],
      "api_key": [
        {
          "current_key": "AIzaSyBoAtAX1XnymJt5_OdOP6Enf-cSPAJ_du0"
        }
      ],
      "services": {
        "analytics_service": {
          "status": 1
        },
        "appinvite_service": {
          "status": 1,
          "other_platform_oauth_client": []
        },
        "ads_service": {
          "status": 2
        }
      }
    }
  ],
  "configuration_version": "1"
}